{
  "iisSettings": {
    "windowsAuthentication": false,
    "anonymousAuthentication": true,
    "iisExpress": {
      "applicationUrl": "http://localhost:60706/",
      "sslPort": 44378
    }
  },
  "profiles": {
    "IIS Express": {
      "commandName": "IISExpress",
      "launchBrowser": true,
      "environmentVariables": {
        "ASPNETCORE_ENVIRONMENT": "Development"
      }
    },
    "AWSServerless1": {
      "commandName": "Project",
      "launchBrowser": true,
      "environmentVariables": {
        "ASPNETCORE_ENVIRONMENT": "Development"
      },
      "applicationUrl": "https://localhost:5001;http://localhost:5000"
    },
    "Mock Lambda Test Tool": {
      "commandName": "Executable",
      "commandLineArgs": "--port 5050",
      "workingDirectory": ".\\bin\\$(Configuration)\\netcoreapp3.1",
      "executablePath": "%USERPROFILE%\\.dotnet\\tools\\dotnet-lambda-test-tool-3.1.exe"
    }
  }
}